{
  "project_info": {
    "project_number": "130043387000",
    "firebase_url": "https://dressshop-8b66b.firebaseio.com",
    "project_id": "dressshop-8b66b",
    "storage_bucket": "dressshop-8b66b.appspot.com"
  },
  "client": [
    {
      "client_info": {
        "mobilesdk_app_id": "1:130043387000:android:92df6709a6cf9a21f6218d",
        "android_client_info": {
          "package_name": "com.dress.dressshop"
        }
      },
      "oauth_client": [
        {
          "client_id": "130043387000-4orf2dqmhn5suimplgphrbf6fah1gmdq.apps.googleusercontent.com",
          "client_type": 1,
          "android_info": {
            "package_name": "com.dress.dressshop",
            "certificate_hash": "9821afeff15c3b0cd5b74160e6d4eea57d1f67a8"
          }
        },
        {
          "client_id": "130043387000-b1po3u25n78hrveqmgr3jjd450vdcr6h.apps.googleusercontent.com",
          "client_type": 3
        }
      ],
      "api_key": [
        {
          "current_key": "AIzaSyDIDRjZTGNeiqBLZj6M55s_m41GqsxRXig"
        }
      ],
      "services": {
        "appinvite_service": {
          "other_platform_oauth_client": [
            {
              "client_id": "130043387000-b1po3u25n78hrveqmgr3jjd450vdcr6h.apps.googleusercontent.com",
              "client_type": 3
            }
          ]
        }
      }
    }
  ],
  "configuration_version": "1"
}